<?xml version="1.0" encoding="UTF-8"?>
<!DOCTYPE svg PUBLIC "-//W3C//DTD SVG 1.1//EN" "http://www.w3.org/Graphics/SVG/1.1/DTD/svg11.dtd">
<svg version="1.2" width="210mm" height="297mm" viewBox="0 0 21000 29700" preserveAspectRatio="xMidYMid" fill-rule="evenodd" stroke-width="28.222" stroke-linejoin="round" xmlns="http://www.w3.org/2000/svg" xmlns:ooo="http://xml.openoffice.org/svg/export" xmlns:xlink="http://www.w3.org/1999/xlink" xmlns:presentation="http://sun.com/xmlns/staroffice/presentation" xmlns:smil="http://www.w3.org/2001/SMIL20/" xmlns:anim="urn:oasis:names:tc:opendocument:xmlns:animation:1.0" xml:space="preserve">
 <defs class="ClipPathGroup">
  <clipPath id="presentation_clip_path" clipPathUnits="userSpaceOnUse">
   <rect x="0" y="0" width="21000" height="29700"/>
  </clipPath>
  <clipPath id="presentation_clip_path_shrink" clipPathUnits="userSpaceOnUse">
   <rect x="21" y="29" width="20958" height="29641"/>
  </clipPath>
 </defs>
 <defs>
  <font id="EmbeddedFont_1" horiz-adv-x="2048">
   <font-face font-family="Droid Sans Mono embedded" units-per-em="2048" font-weight="normal" font-style="normal" ascent="1886" descent="478"/>
   <missing-glyph horiz-adv-x="2048" d="M 0,0 L 2047,0 2047,2047 0,2047 0,0 Z"/>
   <glyph unicode="→" horiz-adv-x="1485"/>
   <glyph unicode="х" horiz-adv-x="1032" d="M 510,563 L 117,1098 324,1098 614,688 905,1098 1112,1098 717,563 1130,0 924,0 614,436 303,0 96,0 510,563 Z"/>
   <glyph unicode="т" horiz-adv-x="982" d="M 1106,944 L 705,944 705,0 522,0 522,944 121,944 121,1098 1106,1098 1106,944 Z"/>
   <glyph unicode="р" horiz-adv-x="957" d="M 340,139 L 328,139 C 336,53 340,-1 340,-23 L 340,-492 158,-492 158,1098 305,1098 332,950 340,950 C 413,1062 521,1118 662,1118 796,1118 901,1068 978,969 1054,869 1092,730 1092,551 1092,371 1054,231 977,131 900,30 795,-20 662,-20 524,-20 417,33 340,139 Z M 340,592 L 340,551 C 340,400 363,292 410,228 456,163 530,131 631,131 812,131 903,272 903,553 903,829 812,967 629,967 528,967 455,938 411,879 366,820 343,725 340,592 Z"/>
   <glyph unicode="о" horiz-adv-x="982" d="M 610,-20 C 466,-20 348,32 255,136 162,239 115,378 115,551 115,726 160,865 251,966 341,1067 463,1118 616,1118 761,1118 880,1066 973,963 1066,860 1112,722 1112,551 1112,374 1066,235 975,133 884,31 762,-20 610,-20 Z M 614,131 C 821,131 924,271 924,551 924,828 820,967 612,967 406,967 303,828 303,551 303,271 407,131 614,131 Z"/>
   <glyph unicode="з" horiz-adv-x="856" d="M 506,647 C 621,647 702,660 751,687 799,713 823,755 823,813 823,916 740,967 573,967 484,967 381,943 264,895 L 201,1042 C 308,1093 431,1118 571,1118 708,1118 813,1093 887,1044 960,994 997,922 997,829 997,705 933,624 805,586 L 805,575 C 956,532 1032,441 1032,303 1032,202 992,123 912,66 831,9 716,-20 567,-20 410,-20 290,3 205,49 L 205,215 C 325,158 447,129 571,129 760,129 854,189 854,309 854,432 750,494 543,494 L 393,494 393,647 506,647 Z"/>
   <glyph unicode="е" horiz-adv-x="982" d="M 1096,514 L 322,514 C 327,264 442,139 666,139 796,139 919,164 1036,215 L 1036,55 C 925,5 804,-20 672,-20 509,-20 378,30 280,130 182,229 133,366 133,541 133,718 178,859 269,963 359,1066 480,1118 631,1118 772,1118 885,1073 970,984 1054,895 1096,776 1096,627 L 1096,514 Z M 326,662 L 899,662 C 899,865 808,967 627,967 444,967 343,865 326,662 Z"/>
   <glyph unicode="д" horiz-adv-x="1108" d="M 1128,-381 L 954,-381 954,0 207,0 207,-381 33,-381 33,154 119,154 C 294,413 382,728 385,1098 L 977,1098 977,154 1128,154 1128,-381 Z M 795,154 L 795,958 545,958 C 521,637 443,369 311,154 L 795,154 Z"/>
   <glyph unicode="в" horiz-adv-x="932" d="M 844,582 L 844,575 C 1020,552 1108,466 1108,317 1108,218 1073,140 1002,84 931,28 827,0 688,0 L 176,0 176,1098 686,1098 C 944,1098 1073,1006 1073,821 1073,690 997,610 844,582 Z M 358,944 L 358,647 651,647 C 740,647 804,659 842,683 880,707 899,747 899,803 899,897 827,944 682,944 L 358,944 Z M 358,494 L 358,150 676,150 C 845,150 930,210 930,330 930,391 908,434 865,458 822,482 757,494 672,494 L 358,494 Z"/>
   <glyph unicode="а" horiz-adv-x="906" d="M 895,0 L 858,152 850,152 C 799,87 746,43 692,18 638,-7 568,-20 483,-20 374,-20 289,9 228,67 166,126 135,207 135,312 135,537 305,650 645,650 L 848,650 848,722 C 848,885 767,967 604,967 506,967 397,940 276,885 L 213,1022 C 344,1086 471,1118 596,1118 747,1118 857,1089 925,1031 992,973 1026,880 1026,752 L 1026,0 895,0 Z M 846,529 L 684,529 C 553,529 461,511 406,475 351,438 324,383 324,308 324,187 391,127 524,127 622,127 700,154 759,207 817,260 846,335 846,432 L 846,529 Z"/>
   <glyph unicode="Н" horiz-adv-x="982" d="M 1094,0 L 907,0 907,682 322,682 322,0 135,0 135,1462 322,1462 322,846 907,846 907,1462 1094,1462 1094,0 Z"/>
   <glyph unicode="Д" horiz-adv-x="1233" d="M 1221,-385 L 1044,-385 1044,0 182,0 182,-385 6,-385 6,166 119,166 C 205,323 277,521 335,760 393,999 426,1233 434,1462 L 1026,1462 1026,166 1221,166 1221,-385 Z M 840,166 L 840,1296 598,1296 C 587,1119 554,920 500,700 445,479 382,301 311,166 L 840,166 Z"/>
   <glyph unicode="В" horiz-adv-x="1007" d="M 135,1462 L 575,1462 C 758,1462 890,1433 973,1375 1055,1316 1096,1222 1096,1092 1096,1007 1070,936 1018,879 965,822 894,788 805,776 L 805,766 C 1026,730 1137,616 1137,424 1137,292 1095,188 1010,113 925,38 809,0 662,0 L 135,0 135,1462 Z M 322,842 L 606,842 C 710,842 786,860 834,897 881,934 905,994 905,1079 905,1159 880,1216 829,1251 778,1286 697,1303 586,1303 L 322,1303 322,842 Z M 322,686 L 322,158 629,158 C 836,158 940,249 940,432 940,601 832,686 616,686 L 322,686 Z"/>
   <glyph unicode="}" horiz-adv-x="781" d="M 483,315 C 483,453 561,536 717,563 L 717,575 C 561,602 483,685 483,823 L 483,1155 C 483,1209 464,1249 427,1274 389,1299 322,1312 227,1312 L 227,1459 C 520,1459 666,1363 666,1171 L 666,837 C 666,710 779,647 1004,647 L 1004,492 C 779,492 666,429 666,302 L 666,-33 C 666,-225 520,-321 227,-321 L 227,-174 C 322,-174 389,-161 427,-136 464,-111 483,-71 483,-17 L 483,315 Z"/>
   <glyph unicode="{" horiz-adv-x="781" d="M 745,-17 C 745,-71 764,-110 801,-135 838,-160 905,-173 1001,-173 L 1001,-321 C 709,-321 563,-225 563,-33 L 563,302 C 563,429 450,492 225,492 L 225,647 C 450,647 563,710 563,837 L 563,1171 C 563,1363 709,1459 1001,1459 L 1001,1312 C 905,1312 838,1299 801,1274 764,1249 745,1210 745,1156 L 745,823 C 745,685 667,602 512,575 L 512,563 C 667,536 745,453 745,315 L 745,-17 Z"/>
   <glyph unicode="y" horiz-adv-x="1083" d="M 82,1098 L 270,1098 532,444 C 587,307 616,211 621,154 L 627,154 C 642,229 672,326 717,446 L 956,1098 1145,1098 670,-143 C 625,-259 573,-346 514,-405 455,-463 373,-492 268,-492 211,-492 155,-486 100,-475 L 100,-330 C 141,-338 187,-342 236,-342 300,-342 350,-328 386,-301 421,-274 453,-227 481,-160 L 539,-10 82,1098 Z"/>
   <glyph unicode="x" horiz-adv-x="1032" d="M 510,563 L 117,1098 324,1098 614,688 905,1098 1112,1098 717,563 1130,0 924,0 614,436 303,0 96,0 510,563 Z"/>
   <glyph unicode="u" horiz-adv-x="931" d="M 922,0 L 895,147 885,147 C 815,36 704,-20 551,-20 290,-20 160,114 160,381 L 160,1098 342,1098 342,391 C 342,218 421,131 578,131 685,131 764,162 813,224 862,285 887,387 887,528 L 887,1098 1069,1098 1069,0 922,0 Z"/>
   <glyph unicode="t" horiz-adv-x="906" d="M 1020,150 L 1020,12 C 933,-9 849,-20 768,-20 527,-20 406,95 406,324 L 406,961 139,961 139,1055 406,1104 483,1391 588,1391 588,1098 1026,1098 1026,961 588,961 588,324 C 588,194 652,129 780,129 842,129 922,136 1020,150 Z"/>
   <glyph unicode="s" horiz-adv-x="831" d="M 203,49 L 203,215 C 332,158 455,129 573,129 756,129 848,183 848,291 848,329 832,362 799,390 766,418 691,453 573,496 418,554 320,607 280,656 239,704 219,761 219,827 219,918 256,989 331,1041 405,1092 508,1118 639,1118 771,1118 894,1093 1008,1044 L 948,895 C 827,943 720,967 629,967 472,967 393,923 393,834 393,793 410,761 444,737 477,712 555,678 676,635 817,584 910,533 957,484 1003,434 1026,373 1026,301 1026,201 987,123 909,66 831,9 721,-20 578,-20 413,-20 288,3 203,49 Z"/>
   <glyph unicode="r" horiz-adv-x="806" d="M 1059,1073 L 1010,907 C 928,937 853,952 786,952 677,952 594,921 535,860 476,798 446,709 446,592 L 446,0 264,0 264,1098 412,1098 434,897 442,897 C 493,976 547,1033 605,1067 663,1101 734,1118 819,1118 898,1118 978,1103 1059,1073 Z"/>
   <glyph unicode="p" horiz-adv-x="957" d="M 340,139 L 328,139 C 336,53 340,-1 340,-23 L 340,-492 158,-492 158,1098 305,1098 332,950 340,950 C 413,1062 521,1118 662,1118 796,1118 901,1068 978,969 1054,869 1092,730 1092,551 1092,371 1054,231 977,131 900,30 795,-20 662,-20 524,-20 417,33 340,139 Z M 340,592 L 340,551 C 340,400 363,292 410,228 456,163 530,131 631,131 812,131 903,272 903,553 903,829 812,967 629,967 528,967 455,938 411,879 366,820 343,725 340,592 Z"/>
   <glyph unicode="o" horiz-adv-x="982" d="M 610,-20 C 466,-20 348,32 255,136 162,239 115,378 115,551 115,726 160,865 251,966 341,1067 463,1118 616,1118 761,1118 880,1066 973,963 1066,860 1112,722 1112,551 1112,374 1066,235 975,133 884,31 762,-20 610,-20 Z M 614,131 C 821,131 924,271 924,551 924,828 820,967 612,967 406,967 303,828 303,551 303,271 407,131 614,131 Z"/>
   <glyph unicode="n" horiz-adv-x="931" d="M 887,0 L 887,707 C 887,880 808,967 649,967 444,967 342,834 342,569 L 342,0 160,0 160,1098 307,1098 334,950 344,950 C 413,1062 525,1118 680,1118 939,1118 1069,984 1069,717 L 1069,0 887,0 Z"/>
   <glyph unicode="l" horiz-adv-x="906" d="M 532,1413 L 264,1434 264,1556 715,1556 715,133 1067,133 1067,0 188,0 188,133 532,133 532,1413 Z"/>
   <glyph unicode="k" horiz-adv-x="932" d="M 383,553 L 518,705 913,1098 1135,1098 641,623 1163,0 950,0 524,504 395,422 395,0 215,0 215,1556 395,1556 395,842 379,553 383,553 Z"/>
   <glyph unicode="i" horiz-adv-x="907" d="M 633,1550 C 704,1550 739,1512 739,1436 739,1397 729,1369 708,1350 687,1331 662,1321 633,1321 562,1321 526,1359 526,1436 526,1512 562,1550 633,1550 Z M 541,954 L 272,975 272,1098 723,1098 723,133 1075,133 1075,0 197,0 197,133 541,133 541,954 Z"/>
   <glyph unicode="h" horiz-adv-x="931" d="M 887,0 L 887,707 C 887,880 808,967 649,967 444,967 342,834 342,569 L 342,0 160,0 160,1556 342,1556 342,1094 334,950 344,950 C 413,1062 525,1118 680,1118 939,1118 1069,984 1069,717 L 1069,0 887,0 Z"/>
   <glyph unicode="f" horiz-adv-x="957" d="M 1044,961 L 655,961 655,0 473,0 473,961 156,961 156,1071 473,1104 473,1200 C 473,1329 503,1422 563,1480 623,1538 723,1567 862,1567 948,1567 1032,1555 1114,1532 L 1073,1389 C 1004,1408 935,1417 866,1417 784,1417 728,1400 699,1367 670,1334 655,1279 655,1202 L 655,1098 1044,1098 1044,961 Z"/>
   <glyph unicode="e" horiz-adv-x="982" d="M 1096,514 L 322,514 C 327,264 442,139 666,139 796,139 919,164 1036,215 L 1036,55 C 925,5 804,-20 672,-20 509,-20 378,30 280,130 182,229 133,366 133,541 133,718 178,859 269,963 359,1066 480,1118 631,1118 772,1118 885,1073 970,984 1054,895 1096,776 1096,627 L 1096,514 Z M 326,662 L 899,662 C 899,865 808,967 627,967 444,967 343,865 326,662 Z"/>
   <glyph unicode="d" horiz-adv-x="956" d="M 897,147 L 889,147 C 814,36 706,-20 567,-20 433,-20 328,30 252,130 175,229 137,368 137,547 137,727 175,867 252,968 329,1068 434,1118 567,1118 704,1118 812,1065 889,958 L 901,958 C 893,1044 889,1098 889,1120 L 889,1556 1071,1556 1071,0 924,0 897,147 Z M 889,506 L 889,547 C 889,698 866,806 820,871 773,935 699,967 598,967 417,967 326,826 326,545 326,269 417,131 600,131 701,131 774,161 819,220 863,279 886,374 889,506 Z"/>
   <glyph unicode="c" horiz-adv-x="906" d="M 1061,1059 L 999,901 C 899,939 810,958 731,958 484,958 360,820 360,545 360,274 480,139 721,139 826,139 933,160 1042,201 L 1042,41 C 953,0 843,-20 713,-20 542,-20 409,29 314,126 219,223 172,362 172,543 172,730 220,873 317,971 414,1069 550,1118 725,1118 844,1118 956,1098 1061,1059 Z"/>
   <glyph unicode="b" horiz-adv-x="957" d="M 340,139 L 328,139 291,0 158,0 158,1556 340,1556 340,1180 C 340,1126 337,1051 332,954 L 340,954 C 411,1063 519,1118 662,1118 796,1118 901,1068 978,969 1054,869 1092,730 1092,551 1092,371 1054,231 977,131 900,30 795,-20 662,-20 524,-20 417,33 340,139 Z M 340,551 C 340,400 363,292 410,228 456,163 530,131 631,131 812,131 903,272 903,553 903,829 812,967 629,967 526,967 452,936 407,873 362,810 340,703 340,551 Z"/>
   <glyph unicode="a" horiz-adv-x="906" d="M 895,0 L 858,152 850,152 C 799,87 746,43 692,18 638,-7 568,-20 483,-20 374,-20 289,9 228,67 166,126 135,207 135,312 135,537 305,650 645,650 L 848,650 848,722 C 848,885 767,967 604,967 506,967 397,940 276,885 L 213,1022 C 344,1086 471,1118 596,1118 747,1118 857,1089 925,1031 992,973 1026,880 1026,752 L 1026,0 895,0 Z M 846,529 L 684,529 C 553,529 461,511 406,475 351,438 324,383 324,308 324,187 391,127 524,127 622,127 700,154 759,207 817,260 846,335 846,432 L 846,529 Z"/>
   <glyph unicode="_" horiz-adv-x="1283" d="M 1243,-324 L -16,-324 -16,-184 1243,-184 1243,-324 Z"/>
   <glyph unicode="=" horiz-adv-x="931" d="M 152,852 L 152,1001 1075,1001 1075,852 152,852 Z M 152,442 L 152,592 1075,592 1075,442 152,442 Z"/>
   <glyph unicode=";" horiz-adv-x="353" d="M 621,1126 C 706,1126 748,1080 748,987 748,894 706,848 621,848 536,848 494,894 494,987 494,1080 536,1126 621,1126 Z M 709,238 L 723,215 C 689,84 630,-76 547,-264 L 410,-264 C 451,-94 485,73 510,238 L 709,238 Z"/>
   <glyph unicode="1" horiz-adv-x="529" d="M 758,0 L 582,0 582,913 C 582,994 585,1115 590,1274 564,1245 524,1208 469,1161 L 322,1040 225,1163 608,1462 758,1462 758,0 Z"/>
   <glyph unicode="." horiz-adv-x="302" d="M 614,301 C 715,301 766,246 766,135 766,24 715,-31 614,-31 513,-31 463,24 463,135 463,246 513,301 614,301 Z"/>
   <glyph unicode="-" horiz-adv-x="680" d="M 285,465 L 285,633 944,633 944,465 285,465 Z"/>
   <glyph unicode=")" horiz-adv-x="629" d="M 489,-324 L 299,-324 C 596,-77 745,221 745,569 745,914 596,1212 297,1462 L 489,1462 C 786,1221 934,923 934,567 934,207 786,-90 489,-324 Z"/>
   <glyph unicode="(" horiz-adv-x="629" d="M 739,1462 L 932,1462 C 633,1211 483,914 483,569 483,222 632,-76 930,-324 L 739,-324 C 443,-89 295,208 295,567 295,922 443,1220 739,1462 Z"/>
   <glyph unicode="!" horiz-adv-x="277" d="M 676,414 L 555,414 504,1462 727,1462 676,414 Z M 614,250 C 699,250 741,204 741,111 741,18 699,-29 614,-29 529,-29 487,18 487,111 487,204 529,250 614,250 Z"/>
   <glyph unicode=" " horiz-adv-x="1232"/>
  </font>
 </defs>
 <defs class="TextShapeIndex">
  <g ooo:slide="id1" ooo:id-list="id3 id4 id5 id6 id7 id8 id9 id10 id11 id12 id13 id14 id15 id16 id17 id18 id19 id20 id21 id22"/>
 </defs>
 <defs class="EmbeddedBulletChars">
  <g id="bullet-char-template(57356)" transform="scale(0.00048828125,-0.00048828125)">
   <path d="M 580,1141 L 1163,571 580,0 -4,571 580,1141 Z"/>
  </g>
  <g id="bullet-char-template(57354)" transform="scale(0.00048828125,-0.00048828125)">
   <path d="M 8,1128 L 1137,1128 1137,0 8,0 8,1128 Z"/>
  </g>
  <g id="bullet-char-template(10146)" transform="scale(0.00048828125,-0.00048828125)">
   <path d="M 174,0 L 602,739 174,1481 1456,739 174,0 Z M 1358,739 L 309,1346 659,739 1358,739 Z"/>
  </g>
  <g id="bullet-char-template(10132)" transform="scale(0.00048828125,-0.00048828125)">
   <path d="M 2015,739 L 1276,0 717,0 1260,543 174,543 174,936 1260,936 717,1481 1274,1481 2015,739 Z"/>
  </g>
  <g id="bullet-char-template(10007)" transform="scale(0.00048828125,-0.00048828125)">
   <path d="M 0,-2 C -7,14 -16,27 -25,37 L 356,567 C 262,823 215,952 215,954 215,979 228,992 255,992 264,992 276,990 289,987 310,991 331,999 354,1012 L 381,999 492,748 772,1049 836,1024 860,1049 C 881,1039 901,1025 922,1006 886,937 835,863 770,784 769,783 710,716 594,584 L 774,223 C 774,196 753,168 711,139 L 727,119 C 717,90 699,76 672,76 641,76 570,178 457,381 L 164,-76 C 142,-110 111,-127 72,-127 30,-127 9,-110 8,-76 1,-67 -2,-52 -2,-32 -2,-23 -1,-13 0,-2 Z"/>
  </g>
  <g id="bullet-char-template(10004)" transform="scale(0.00048828125,-0.00048828125)">
   <path d="M 285,-33 C 182,-33 111,30 74,156 52,228 41,333 41,471 41,549 55,616 82,672 116,743 169,778 240,778 293,778 328,747 346,684 L 369,508 C 377,444 397,411 428,410 L 1163,1116 C 1174,1127 1196,1133 1229,1133 1271,1133 1292,1118 1292,1087 L 1292,965 C 1292,929 1282,901 1262,881 L 442,47 C 390,-6 338,-33 285,-33 Z"/>
  </g>
  <g id="bullet-char-template(9679)" transform="scale(0.00048828125,-0.00048828125)">
   <path d="M 813,0 C 632,0 489,54 383,161 276,268 223,411 223,592 223,773 276,916 383,1023 489,1130 632,1184 813,1184 992,1184 1136,1130 1245,1023 1353,916 1407,772 1407,592 1407,412 1353,268 1245,161 1136,54 992,0 813,0 Z"/>
  </g>
  <g id="bullet-char-template(8226)" transform="scale(0.00048828125,-0.00048828125)">
   <path d="M 346,457 C 273,457 209,483 155,535 101,586 74,649 74,723 74,796 101,859 155,911 209,963 273,989 346,989 419,989 480,963 531,910 582,859 608,796 608,723 608,648 583,586 532,535 482,483 420,457 346,457 Z"/>
  </g>
  <g id="bullet-char-template(8211)" transform="scale(0.00048828125,-0.00048828125)">
   <path d="M -4,459 L 1135,459 1135,606 -4,606 -4,459 Z"/>
  </g>
  <g id="bullet-char-template(61548)" transform="scale(0.00048828125,-0.00048828125)">
   <path d="M 173,740 C 173,903 231,1043 346,1159 462,1274 601,1332 765,1332 928,1332 1067,1274 1183,1159 1299,1043 1357,903 1357,740 1357,577 1299,437 1183,322 1067,206 928,148 765,148 601,148 462,206 346,322 231,437 173,577 173,740 Z"/>
  </g>
 </defs>
 <defs class="TextEmbeddedBitmaps"/>
 <g>
  <g id="id2" class="Master_Slide">
   <g id="bg-id2" class="Background"/>
   <g id="bo-id2" class="BackgroundObjects"/>
  </g>
 </g>
 <g class="SlideGroup">
  <g>
   <g id="container-id1">
    <g id="id1" class="Slide" clip-path="url(#presentation_clip_path)">
     <g class="Page">
      <g class="com.sun.star.drawing.CustomShape">
       <g id="id3">
        <rect class="BoundingBox" stroke="none" fill="none" x="4273" y="1241" width="2871" height="784"/>
        <path fill="rgb(255,255,255)" stroke="none" d="M 4734,2023 C 4504,2023 4274,1827 4274,1632 4274,1437 4504,1242 4734,1242 L 6681,1242 C 6911,1242 7142,1437 7142,1632 7142,1827 6911,2023 6681,2023 L 4734,2023 Z M 4274,1242 L 4274,1242 Z M 7142,2023 L 7142,2023 Z"/>
        <path fill="none" stroke="rgb(0,0,0)" d="M 4734,2023 C 4504,2023 4274,1827 4274,1632 4274,1437 4504,1242 4734,1242 L 6681,1242 C 6911,1242 7142,1437 7142,1632 7142,1827 6911,2023 6681,2023 L 4734,2023 Z"/>
        <path fill="none" stroke="rgb(0,0,0)" d="M 4274,1242 L 4274,1242 Z"/>
        <path fill="none" stroke="rgb(0,0,0)" d="M 7142,2023 L 7142,2023 Z"/>
        <text class="TextShape"><tspan class="TextParagraph" font-family="Droid Sans Mono, monospace" font-size="423px" font-weight="400"><tspan class="TextPosition" x="5200" y="1778"><tspan fill="rgb(0,0,0)" stroke="none">Вход</tspan></tspan></tspan></text>
       </g>
      </g>
      <g class="com.sun.star.drawing.CustomShape">
       <g id="id4">
        <rect class="BoundingBox" stroke="none" fill="none" x="3118" y="2524" width="5184" height="1664"/>
        <path fill="rgb(255,255,255)" stroke="none" d="M 3119,2525 L 8300,2525 8300,4186 3119,4186 3119,2525 3119,2525 Z M 3119,2525 L 3119,2525 Z M 8300,4186 L 8300,4186 Z"/>
        <path fill="none" stroke="rgb(0,0,0)" d="M 3119,2525 L 8300,2525 8300,4186 3119,4186 3119,2525 3119,2525 Z"/>
        <path fill="none" stroke="rgb(0,0,0)" d="M 3119,2525 L 3119,2525 Z"/>
        <path fill="none" stroke="rgb(0,0,0)" d="M 8300,4186 L 8300,4186 Z"/>
        <text class="TextShape"><tspan class="TextParagraph" font-family="Droid Sans Mono, monospace" font-size="423px" font-weight="400"><tspan class="TextPosition" x="4185" y="3257"><tspan fill="rgb(0,0,0)" stroke="none">authors = {}</tspan></tspan></tspan><tspan class="TextParagraph" font-family="Droid Sans Mono, monospace" font-size="423px" font-weight="400"><tspan class="TextPosition" x="3550" y="3744"><tspan fill="rgb(0,0,0)" stroke="none">cur = author_list</tspan></tspan></tspan></text>
       </g>
      </g>
      <g class="com.sun.star.drawing.ConnectorShape">
       <g id="id5">
        <rect class="BoundingBox" stroke="none" fill="none" x="5708" y="2021" width="3" height="506"/>
        <path fill="none" stroke="rgb(0,0,0)" d="M 5709,2525 L 5709,2022"/>
       </g>
      </g>
      <g class="com.sun.star.drawing.CustomShape">
       <g id="id6">
        <rect class="BoundingBox" stroke="none" fill="none" x="4070" y="4787" width="3299" height="1388"/>
        <path fill="rgb(255,255,255)" stroke="none" d="M 4071,5480 L 5719,4788 7367,5480 5719,6173 4071,5480 4071,5480 Z M 4071,4788 L 4071,4788 Z M 7367,6173 L 7367,6173 Z"/>
        <path fill="none" stroke="rgb(0,0,0)" d="M 4071,5480 L 5719,4788 7367,5480 5719,6173 4071,5480 4071,5480 Z"/>
        <path fill="none" stroke="rgb(0,0,0)" d="M 4071,4788 L 4071,4788 Z"/>
        <path fill="none" stroke="rgb(0,0,0)" d="M 7367,6173 L 7367,6173 Z"/>
        <text class="TextShape"><tspan class="TextParagraph" font-family="Droid Sans Mono, monospace" font-size="423px" font-weight="400"><tspan class="TextPosition" x="5338" y="5626"><tspan fill="rgb(0,0,0)" stroke="none">cur</tspan></tspan></tspan></text>
       </g>
      </g>
      <g class="com.sun.star.drawing.ConnectorShape">
       <g id="id7">
        <rect class="BoundingBox" stroke="none" fill="none" x="5708" y="4184" width="14" height="606"/>
        <path fill="none" stroke="rgb(0,0,0)" d="M 5720,4788 L 5709,4185"/>
       </g>
      </g>
      <g class="com.sun.star.drawing.CustomShape">
       <g id="id8">
        <rect class="BoundingBox" stroke="none" fill="none" x="2236" y="6850" width="6970" height="2719"/>
        <path fill="rgb(255,255,255)" stroke="none" d="M 2237,8209 L 5720,6851 9204,8209 5720,9567 2237,8209 2237,8209 Z M 2237,6851 L 2237,6851 Z M 9204,9567 L 9204,9567 Z"/>
        <path fill="none" stroke="rgb(0,0,0)" d="M 2237,8209 L 5720,6851 9204,8209 5720,9567 2237,8209 2237,8209 Z"/>
        <path fill="none" stroke="rgb(0,0,0)" d="M 2237,6851 L 2237,6851 Z"/>
        <path fill="none" stroke="rgb(0,0,0)" d="M 9204,9567 L 9204,9567 Z"/>
        <text class="TextShape"><tspan class="TextParagraph" font-family="Droid Sans Mono, monospace" font-size="353px" font-weight="400"><tspan class="TextPosition" x="4238" y="7926"><tspan fill="rgb(0,0,0)" stroke="none">property.find(</tspan></tspan></tspan><tspan class="TextParagraph" font-family="Droid Sans Mono, monospace" font-size="353px" font-weight="400"><tspan class="TextPosition" x="3497" y="8332"><tspan fill="rgb(0,0,0)" stroke="none">cur→data→desciplines)</tspan></tspan></tspan><tspan class="TextParagraph" font-family="Droid Sans Mono, monospace" font-size="353px" font-weight="400"><tspan class="TextPosition" x="5191" y="8738"><tspan fill="rgb(0,0,0)" stroke="none">!= -1</tspan></tspan></tspan></text>
       </g>
      </g>
      <g class="com.sun.star.drawing.ConnectorShape">
       <g id="id9">
        <rect class="BoundingBox" stroke="none" fill="none" x="5719" y="6171" width="3" height="683"/>
        <path fill="none" stroke="rgb(0,0,0)" d="M 5720,6172 L 5720,6852"/>
       </g>
      </g>
      <g class="com.sun.star.drawing.CustomShape">
       <g id="id10">
        <rect class="BoundingBox" stroke="none" fill="none" x="2261" y="10219" width="6971" height="1488"/>
        <path fill="rgb(255,255,255)" stroke="none" d="M 2262,10220 L 9230,10220 9230,11705 2262,11705 2262,10220 Z M 2262,10220 L 2262,10220 Z M 9230,11705 L 9230,11705 Z"/>
        <path fill="none" stroke="rgb(0,0,0)" d="M 2262,10220 L 9230,10220 9230,11705 2262,11705 2262,10220 Z"/>
        <path fill="none" stroke="rgb(0,0,0)" d="M 2262,10220 L 2262,10220 Z"/>
        <path fill="none" stroke="rgb(0,0,0)" d="M 9230,11705 L 9230,11705 Z"/>
        <path fill="rgb(255,255,255)" stroke="none" d="M 3081,10220 L 3081,11705 3081,10220 Z M 2262,10220 L 2262,10220 Z M 9230,11705 L 9230,11705 Z"/>
        <path fill="none" stroke="rgb(0,0,0)" d="M 3081,10220 L 3081,11705"/>
        <path fill="none" stroke="rgb(0,0,0)" d="M 2262,10220 L 2262,10220 Z"/>
        <path fill="none" stroke="rgb(0,0,0)" d="M 9230,11705 L 9230,11705 Z"/>
        <path fill="rgb(255,255,255)" stroke="none" d="M 8410,10220 L 8410,11705 8410,10220 Z M 2262,10220 L 2262,10220 Z M 9230,11705 L 9230,11705 Z"/>
        <path fill="none" stroke="rgb(0,0,0)" d="M 8410,10220 L 8410,11705"/>
        <path fill="none" stroke="rgb(0,0,0)" d="M 2262,10220 L 2262,10220 Z"/>
        <path fill="none" stroke="rgb(0,0,0)" d="M 9230,11705 L 9230,11705 Z"/>
        <text class="TextShape"><tspan class="TextParagraph" font-family="Droid Sans Mono, monospace" font-size="423px" font-weight="400"><tspan class="TextPosition" x="3460" y="10865"><tspan fill="rgb(0,0,0)" stroke="none">authors.push_back(</tspan></tspan></tspan><tspan class="TextParagraph" font-family="Droid Sans Mono, monospace" font-size="423px" font-weight="400"><tspan class="TextPosition" x="4603" y="11352"><tspan fill="rgb(0,0,0)" stroke="none">cur→data)</tspan></tspan></tspan></text>
       </g>
      </g>
      <g class="com.sun.star.drawing.ConnectorShape">
       <g id="id11">
        <rect class="BoundingBox" stroke="none" fill="none" x="5719" y="9566" width="29" height="656"/>
        <path fill="none" stroke="rgb(0,0,0)" d="M 5720,9567 L 5746,10220"/>
       </g>
      </g>
      <g class="com.sun.star.drawing.CustomShape">
       <g id="id12">
        <rect class="BoundingBox" stroke="none" fill="none" x="8248" y="5769" width="3198" height="1336"/>
        <path fill="rgb(255,255,255)" stroke="none" d="M 8249,5770 L 11444,5770 11444,7103 8249,7103 8249,5770 8249,5770 Z M 8249,5770 L 8249,5770 Z M 11444,7103 L 11444,7103 Z"/>
        <path fill="none" stroke="rgb(0,0,0)" d="M 8249,5770 L 11444,5770 11444,7103 8249,7103 8249,5770 8249,5770 Z"/>
        <path fill="none" stroke="rgb(0,0,0)" d="M 8249,5770 L 8249,5770 Z"/>
        <path fill="none" stroke="rgb(0,0,0)" d="M 11444,7103 L 11444,7103 Z"/>
        <text class="TextShape"><tspan class="TextParagraph" font-family="Droid Sans Mono, monospace" font-size="423px" font-weight="400"><tspan class="TextPosition" x="9084" y="6338"><tspan fill="rgb(0,0,0)" stroke="none">cur = </tspan></tspan></tspan><tspan class="TextParagraph" font-family="Droid Sans Mono, monospace" font-size="423px" font-weight="400"><tspan class="TextPosition" x="8703" y="6825"><tspan fill="rgb(0,0,0)" stroke="none">cur→next;</tspan></tspan></tspan></text>
       </g>
      </g>
      <g class="com.sun.star.drawing.ConnectorShape">
       <g id="id13">
        <rect class="BoundingBox" stroke="none" fill="none" x="5745" y="7101" width="4103" height="4757"/>
        <path fill="none" stroke="rgb(0,0,0)" d="M 5746,11704 L 5746,11856 9846,11856 9846,7102"/>
       </g>
      </g>
      <g class="com.sun.star.drawing.ConnectorShape">
       <g id="id14">
        <rect class="BoundingBox" stroke="none" fill="none" x="5713" y="4485" width="4135" height="1287"/>
        <path fill="none" stroke="rgb(0,0,0)" d="M 9846,5770 L 9846,4486 5714,4486"/>
       </g>
      </g>
      <g class="com.sun.star.drawing.CustomShape">
       <g id="id15">
        <rect class="BoundingBox" stroke="none" fill="none" x="4173" y="12357" width="3123" height="1311"/>
        <path fill="rgb(255,255,255)" stroke="none" d="M 4675,13666 C 4424,13666 4174,13339 4174,13012 4174,12685 4424,12358 4675,12358 L 6792,12358 C 7042,12358 7293,12685 7293,13012 7293,13339 7042,13666 6792,13666 L 4675,13666 Z M 4174,12358 L 4174,12358 Z M 7294,13666 L 7294,13666 Z"/>
        <path fill="none" stroke="rgb(0,0,0)" d="M 4675,13666 C 4424,13666 4174,13339 4174,13012 4174,12685 4424,12358 4675,12358 L 6792,12358 C 7042,12358 7293,12685 7293,13012 7293,13339 7042,13666 6792,13666 L 4675,13666 Z"/>
        <path fill="none" stroke="rgb(0,0,0)" d="M 4174,12358 L 4174,12358 Z"/>
        <path fill="none" stroke="rgb(0,0,0)" d="M 7294,13666 L 7294,13666 Z"/>
        <text class="TextShape"><tspan class="TextParagraph" font-family="Droid Sans Mono, monospace" font-size="423px" font-weight="400"><tspan class="TextPosition" x="4845" y="12914"><tspan fill="rgb(0,0,0)" stroke="none">Возврат</tspan></tspan></tspan><tspan class="TextParagraph" font-family="Droid Sans Mono, monospace" font-size="423px" font-weight="400"><tspan class="TextPosition" x="4845" y="13401"><tspan fill="rgb(0,0,0)" stroke="none">authors</tspan></tspan></tspan></text>
       </g>
      </g>
      <g class="com.sun.star.drawing.ConnectorShape">
       <g id="id16">
        <rect class="BoundingBox" stroke="none" fill="none" x="1810" y="5479" width="3926" height="6882"/>
        <path fill="none" stroke="rgb(0,0,0)" d="M 5734,12359 L 5734,12007 1811,12007 1811,5480 4072,5480"/>
       </g>
      </g>
      <g class="com.sun.star.drawing.TextShape">
       <g id="id17">
        <rect class="BoundingBox" stroke="none" fill="none" x="5862" y="6048" width="1011" height="739"/>
        <text class="TextShape"><tspan class="TextParagraph" font-family="Droid Sans Mono, monospace" font-size="423px" font-weight="400"><tspan class="TextPosition" x="6112" y="6562"><tspan fill="rgb(0,0,0)" stroke="none">Да</tspan></tspan></tspan></text>
       </g>
      </g>
      <g class="com.sun.star.drawing.TextShape">
       <g id="id18">
        <rect class="BoundingBox" stroke="none" fill="none" x="3262" y="4748" width="1265" height="739"/>
        <text class="TextShape"><tspan class="TextParagraph" font-family="Droid Sans Mono, monospace" font-size="423px" font-weight="400"><tspan class="TextPosition" x="3512" y="5262"><tspan fill="rgb(0,0,0)" stroke="none">Нет</tspan></tspan></tspan></text>
       </g>
      </g>
      <g class="com.sun.star.drawing.TextShape">
       <g id="id19">
        <rect class="BoundingBox" stroke="none" fill="none" x="5862" y="9648" width="1011" height="739"/>
        <text class="TextShape"><tspan class="TextParagraph" font-family="Droid Sans Mono, monospace" font-size="423px" font-weight="400"><tspan class="TextPosition" x="6112" y="10162"><tspan fill="rgb(0,0,0)" stroke="none">Да</tspan></tspan></tspan></text>
       </g>
      </g>
      <g class="com.sun.star.drawing.TextShape">
       <g id="id20">
        <rect class="BoundingBox" stroke="none" fill="none" x="8462" y="7448" width="1265" height="739"/>
        <text class="TextShape"><tspan class="TextParagraph" font-family="Droid Sans Mono, monospace" font-size="423px" font-weight="400"><tspan class="TextPosition" x="8712" y="7962"><tspan fill="rgb(0,0,0)" stroke="none">Нет</tspan></tspan></tspan></text>
       </g>
      </g>
      <g class="com.sun.star.drawing.ConnectorShape">
       <g id="id21">
        <rect class="BoundingBox" stroke="none" fill="none" x="9202" y="7101" width="646" height="1110"/>
        <path fill="none" stroke="rgb(0,0,0)" d="M 9203,8209 L 9846,8209 9846,7102"/>
       </g>
      </g>
      <g class="com.sun.star.drawing.LineShape">
       <g id="id22">
        <rect class="BoundingBox" stroke="none" fill="none" x="7369" y="4336" width="681" height="301"/>
        <path fill="none" stroke="rgb(0,0,0)" d="M 8048,4486 L 7799,4486"/>
        <path fill="rgb(0,0,0)" stroke="none" d="M 7369,4486 L 7819,4636 7819,4336 7369,4486 Z"/>
       </g>
      </g>
     </g>
    </g>
   </g>
  </g>
 </g>
</svg>